{
  "__type__": "cc.AnimationClip",
  "_name": "findmatch",
  "_objFlags": 0,
  "_native": "",
  "_duration": 1.875,
  "sample": 24,
  "speed": 1,
  "wrapMode": "2",
  "curveData": {
    "comps": {
      "cc.Sprite": {
        "spriteFrame": [
          {
            "frame": 0,
            "value": {
              "__uuid__": "965e4ec7-f6a1-43a9-adcc-794249504a57"
            }
          },
          {
            "frame": 0.041666666666666664,
            "value": {
              "__uuid__": "06c52781-4e07-4ab3-be8c-fb6313de8311"
            }
          },
          {
            "frame": 0.08333333333333333,
            "value": {
              "__uuid__": "341c8780-2e5e-4afc-b090-9ad6648c06b2"
            }
          },
          {
            "frame": 0.125,
            "value": {
              "__uuid__": "9002a90c-669f-46ca-8087-f556f9bfdd9b"
            }
          },
          {
            "frame": 0.16666666666666666,
            "value": {
              "__uuid__": "e03ce4e7-2063-4171-872a-8a84faabe59f"
            }
          },
          {
            "frame": 0.20833333333333334,
            "value": {
              "__uuid__": "b8a65828-6b44-4250-8992-685fd64aa9f5"
            }
          },
          {
            "frame": 0.25,
            "value": {
              "__uuid__": "ee4c3c23-2267-4d33-823c-5363b4a8bae0"
            }
          },
          {
            "frame": 0.2916666666666667,
            "value": {
              "__uuid__": "54a1da70-741d-4a05-82b3-66131773db37"
            }
          },
          {
            "frame": 0.3333333333333333,
            "value": {
              "__uuid__": "0502c3fb-ea89-4c85-be59-84ccf0df2284"
            }
          },
          {
            "frame": 0.375,
            "value": {
              "__uuid__": "97dd7548-0e71-4208-9448-1bef7d9abeb1"
            }
          },
          {
            "frame": 0.4166666666666667,
            "value": {
              "__uuid__": "7e93517d-26f9-4754-b9d2-2f923ff5adb1"
            }
          },
          {
            "frame": 0.4583333333333333,
            "value": {
              "__uuid__": "8d61b0b7-2e22-42e3-b822-41972411ae9d"
            }
          },
          {
            "frame": 0.5,
            "value": {
              "__uuid__": "313d2974-3301-442c-9449-0688897a78d4"
            }
          },
          {
            "frame": 0.5416666666666666,
            "value": {
              "__uuid__": "022f2442-2b25-4509-a13d-c225605a8703"
            }
          },
          {
            "frame": 0.5833333333333334,
            "value": {
              "__uuid__": "a3769ebd-2701-4e72-b757-8ab57394d59a"
            }
          },
          {
            "frame": 0.625,
            "value": {
              "__uuid__": "b44419e1-a9f6-4aeb-b6d7-6b477feeaeed"
            }
          },
          {
            "frame": 0.6666666666666666,
            "value": {
              "__uuid__": "4c01f318-80e7-4086-8c4a-09b0fcc1ddb8"
            }
          },
          {
            "frame": 0.7083333333333334,
            "value": {
              "__uuid__": "04c19eb7-7c5b-46e5-a0b9-59eca5499fcf"
            }
          },
          {
            "frame": 0.75,
            "value": {
              "__uuid__": "0ec06ea4-c3d5-4e64-a931-cb12198eb8c4"
            }
          },
          {
            "frame": 0.7916666666666666,
            "value": {
              "__uuid__": "fc4fc7f4-3f95-49e2-a4a2-60bc95755876"
            }
          },
          {
            "frame": 0.8333333333333334,
            "value": {
              "__uuid__": "54d8a13a-a178-420a-82f2-4953cafdd8a3"
            }
          },
          {
            "frame": 0.875,
            "value": {
              "__uuid__": "c327298e-6e5c-4243-bc2c-7a8bfacf0581"
            }
          },
          {
            "frame": 0.9166666666666666,
            "value": {
              "__uuid__": "0b5739b5-b36a-47b4-a931-3c410945b316"
            }
          },
          {
            "frame": 0.9583333333333334,
            "value": {
              "__uuid__": "3fe27908-fc77-4dad-a808-ba1f7a3e9efe"
            }
          },
          {
            "frame": 1,
            "value": {
              "__uuid__": "e6611f64-8243-4f34-8089-5d4e4df8dd73"
            }
          },
          {
            "frame": 1.0416666666666667,
            "value": {
              "__uuid__": "1b5bfbdd-f85c-46f0-8edd-fa89bcaf1820"
            }
          },
          {
            "frame": 1.0833333333333333,
            "value": {
              "__uuid__": "26e1a887-ca9a-4ce8-ae1b-fc2cc5bddec9"
            }
          },
          {
            "frame": 1.125,
            "value": {
              "__uuid__": "5844f7b5-705e-4426-9acf-2fbd66b48548"
            }
          },
          {
            "frame": 1.1666666666666667,
            "value": {
              "__uuid__": "93ea5448-d694-43bc-93f6-731f79031ae1"
            }
          },
          {
            "frame": 1.2083333333333333,
            "value": {
              "__uuid__": "c3c073a2-0313-4eda-b557-7e96f50f266b"
            }
          },
          {
            "frame": 1.25,
            "value": {
              "__uuid__": "a0c89c00-95fc-421d-bc46-eb0602acc32d"
            }
          },
          {
            "frame": 1.2916666666666667,
            "value": {
              "__uuid__": "7d0421b4-aa20-43dd-978d-cd19ab1eb71c"
            }
          },
          {
            "frame": 1.3333333333333333,
            "value": {
              "__uuid__": "3da9df8e-714d-4adc-8b27-1768efb80309"
            }
          },
          {
            "frame": 1.375,
            "value": {
              "__uuid__": "74186596-11cd-49a1-852b-d622589f7e15"
            }
          },
          {
            "frame": 1.4166666666666667,
            "value": {
              "__uuid__": "e2fac53c-b1e7-4ebf-96ba-573d6bac120d"
            }
          },
          {
            "frame": 1.4583333333333333,
            "value": {
              "__uuid__": "f726f707-ffac-4546-9f8f-f84c9fafcd7a"
            }
          },
          {
            "frame": 1.5,
            "value": {
              "__uuid__": "4aa83c95-3ead-4f79-8d4a-5aa7dd85131f"
            }
          },
          {
            "frame": 1.5416666666666667,
            "value": {
              "__uuid__": "b5ab89a2-1f0f-4552-8330-f9ae5058e77d"
            }
          },
          {
            "frame": 1.5833333333333333,
            "value": {
              "__uuid__": "b36c753f-ac2b-4d4e-af44-d99f51b6e6c4"
            }
          },
          {
            "frame": 1.625,
            "value": {
              "__uuid__": "b8f86a40-bc90-4a6c-8b67-f4d3de47b80f"
            }
          },
          {
            "frame": 1.6666666666666667,
            "value": {
              "__uuid__": "7a3deb1c-b2cf-44bb-a4f4-4debf3beca48"
            }
          },
          {
            "frame": 1.7083333333333333,
            "value": {
              "__uuid__": "623e3f27-8e60-4c25-ac5d-5b3915d42205"
            }
          },
          {
            "frame": 1.75,
            "value": {
              "__uuid__": "eed00ea5-51b3-47e3-8b8a-3fdcd0d9b007"
            }
          },
          {
            "frame": 1.7916666666666667,
            "value": {
              "__uuid__": "2f763173-aefb-4dfd-a3e4-59b2fb6fdde0"
            }
          },
          {
            "frame": 1.8333333333333333,
            "value": {
              "__uuid__": "a2da2d10-2cb0-4c87-ad2d-15fc3dfca6d0"
            }
          }
        ]
      }
    }
  },
  "events": []
}