{
  "__type__": "cc.AnimationClip",
  "_name": "dice",
  "_objFlags": 0,
  "_native": "",
  "_duration": 1.3666666666666667,
  "sample": 30,
  "speed": 1,
  "wrapMode": "1",
  "curveData": {
    "comps": {
      "cc.Sprite": {
        "spriteFrame": [
          {
            "frame": 0,
            "value": {
              "__uuid__": "04ace25f-ac30-4306-acc5-70165514fe22"
            }
          },
          {
            "frame": 0.03333333333333333,
            "value": {
              "__uuid__": "86ab5f7f-bfcc-4471-80df-2c448e30aeb7"
            }
          },
          {
            "frame": 0.06666666666666667,
            "value": {
              "__uuid__": "ea986ea4-7144-4e1c-96bc-df00a628b61a"
            }
          },
          {
            "frame": 0.1,
            "value": {
              "__uuid__": "d8f2d4f4-7eff-44bc-82f9-a3cbfbca0a72"
            }
          },
          {
            "frame": 0.13333333333333333,
            "value": {
              "__uuid__": "126c042a-685b-426c-9dab-26d73df0edd6"
            }
          },
          {
            "frame": 0.16666666666666666,
            "value": {
              "__uuid__": "0ffc0dc7-1902-4121-8a1c-d7c80acc309a"
            }
          },
          {
            "frame": 0.2,
            "value": {
              "__uuid__": "058c4254-edbf-4385-ba88-c0eefae391c7"
            }
          },
          {
            "frame": 0.23333333333333334,
            "value": {
              "__uuid__": "6760d8ef-ba5a-4cd5-af38-f66a75df6ee2"
            }
          },
          {
            "frame": 0.26666666666666666,
            "value": {
              "__uuid__": "ffc357de-6f48-4210-8f30-05966d1ec9d5"
            }
          },
          {
            "frame": 0.3,
            "value": {
              "__uuid__": "3548df2b-1ffd-4dab-83cb-75c6e27610ff"
            }
          },
          {
            "frame": 0.3333333333333333,
            "value": {
              "__uuid__": "be9055f7-dbb0-449a-9930-3a27dd80b713"
            }
          },
          {
            "frame": 0.36666666666666664,
            "value": {
              "__uuid__": "64ef2f73-d9d5-43fe-93c4-f28fe2dae20f"
            }
          },
          {
            "frame": 0.4,
            "value": {
              "__uuid__": "791d31cf-a4a5-49cd-8686-c3e0a03e25f0"
            }
          },
          {
            "frame": 0.43333333333333335,
            "value": {
              "__uuid__": "508605f0-cf14-4df4-8acd-2d27d7559654"
            }
          },
          {
            "frame": 0.4666666666666667,
            "value": {
              "__uuid__": "cc3a0862-d49f-4977-ae57-7e625f673416"
            }
          },
          {
            "frame": 0.5,
            "value": {
              "__uuid__": "e435d28d-e5d9-4096-b489-9125598ef027"
            }
          },
          {
            "frame": 0.5333333333333333,
            "value": {
              "__uuid__": "3ffc5d39-5820-4243-b03d-ea91ac4407f7"
            }
          },
          {
            "frame": 0.5666666666666667,
            "value": {
              "__uuid__": "6e33331a-36ae-4196-9f78-f61a98fa6e66"
            }
          },
          {
            "frame": 0.6,
            "value": {
              "__uuid__": "bfd61383-919f-4437-b3a3-66838eecb30d"
            }
          },
          {
            "frame": 0.6333333333333333,
            "value": {
              "__uuid__": "acb85bee-8967-48fe-bb88-5521380de5ed"
            }
          },
          {
            "frame": 0.6666666666666666,
            "value": {
              "__uuid__": "2acffe08-572d-46b5-b4d1-b014d913f562"
            }
          },
          {
            "frame": 0.7,
            "value": {
              "__uuid__": "2b12d378-4415-4f93-9b3b-e138a0f45f41"
            }
          },
          {
            "frame": 0.7333333333333333,
            "value": {
              "__uuid__": "b792bfc9-e794-43d5-8fca-5829c4a84979"
            }
          },
          {
            "frame": 0.7666666666666667,
            "value": {
              "__uuid__": "0bbd29ea-2dcb-42a1-9230-ce68b84deb1d"
            }
          },
          {
            "frame": 0.8,
            "value": {
              "__uuid__": "491002d8-33f1-40c9-8c54-41a0276e9d8f"
            }
          },
          {
            "frame": 0.8333333333333334,
            "value": {
              "__uuid__": "2c416610-be09-4c5b-8978-d78f513ea72d"
            }
          },
          {
            "frame": 0.8666666666666667,
            "value": {
              "__uuid__": "41240da9-700c-462c-a828-c90ed9dfc4b2"
            }
          },
          {
            "frame": 0.9,
            "value": {
              "__uuid__": "abf5b41c-07ca-4b70-a411-8f0044a295c5"
            }
          },
          {
            "frame": 0.9333333333333333,
            "value": {
              "__uuid__": "89bbd1b1-d085-4781-8942-8017db851b32"
            }
          },
          {
            "frame": 0.9666666666666667,
            "value": {
              "__uuid__": "3cb9be40-20fb-4899-ac91-284ee588a02b"
            }
          },
          {
            "frame": 1,
            "value": {
              "__uuid__": "3446b1a1-c7c2-4c2b-be55-5c9a7cee2d2a"
            }
          },
          {
            "frame": 1.0333333333333334,
            "value": {
              "__uuid__": "cc2c58cb-ef38-41bf-afb6-d9be4ea11b3b"
            }
          },
          {
            "frame": 1.0666666666666667,
            "value": {
              "__uuid__": "0c016e18-b17d-40d6-ae84-7ba21c8e62ea"
            }
          },
          {
            "frame": 1.1,
            "value": {
              "__uuid__": "04bdd2a2-064a-4743-b4de-aafdd904b2b4"
            }
          },
          {
            "frame": 1.1333333333333333,
            "value": {
              "__uuid__": "3f232c39-e417-4dc6-87fa-dce99d8cd833"
            }
          },
          {
            "frame": 1.1666666666666667,
            "value": {
              "__uuid__": "194dbb3a-32e5-436c-b447-ee279ab75e55"
            }
          },
          {
            "frame": 1.2,
            "value": {
              "__uuid__": "ee903281-3162-4968-9c10-6fb0e1103611"
            }
          },
          {
            "frame": 1.2333333333333334,
            "value": {
              "__uuid__": "dbb88f64-6cfb-4620-baac-6c119fcf14ea"
            }
          },
          {
            "frame": 1.2666666666666666,
            "value": {
              "__uuid__": "7d62698b-623b-469c-95ce-06355391e599"
            }
          },
          {
            "frame": 1.3,
            "value": {
              "__uuid__": "134e4a00-7d13-4e8b-9081-9ff8e52d3355"
            }
          },
          {
            "frame": 1.3333333333333333,
            "value": {
              "__uuid__": "90d7d268-55d1-4de3-b3f1-1d673ab7ccd7"
            }
          }
        ]
      }
    }
  },
  "events": [
    {
      "frame": 1.3333333333333333,
      "func": "diceEffectDone",
      "params": []
    }
  ]
}