{
  "__type__": "cc.AnimationClip",
  "_name": "LobbyIconGameSlot1",
  "_objFlags": 0,
  "_native": "",
  "_duration": 0.5,
  "sample": 60,
  "speed": 0.5,
  "wrapMode": "2",
  "curveData": {
    "comps": {
      "cc.Sprite": {
        "spriteFrame": [
          {
            "frame": 0,
            "value": {
              "__uuid__": "ed4f5c7e-b708-4528-9325-cf39de234a61"
            }
          },
          {
            "frame": 0.016666666666666666,
            "value": {
              "__uuid__": "0fbe4a3a-6fbf-4ae1-8f35-3c4e534ad425"
            }
          },
          {
            "frame": 0.03333333333333333,
            "value": {
              "__uuid__": "6cb01598-1c08-48e9-96da-2a5b816851fc"
            }
          },
          {
            "frame": 0.05,
            "value": {
              "__uuid__": "9fc068a2-95ca-4408-b7eb-177ce50964f3"
            }
          },
          {
            "frame": 0.06666666666666667,
            "value": {
              "__uuid__": "6131854a-a1a8-4979-a495-e496ade7000c"
            }
          },
          {
            "frame": 0.08333333333333333,
            "value": {
              "__uuid__": "c7e30dd9-3ec5-4dfa-84d4-1a0b7d780254"
            }
          },
          {
            "frame": 0.1,
            "value": {
              "__uuid__": "e01c90b9-33c8-4cac-909c-c3f251aa5fa2"
            }
          },
          {
            "frame": 0.11666666666666667,
            "value": {
              "__uuid__": "40993236-cdf1-4d9a-8552-94429c6aa06e"
            }
          },
          {
            "frame": 0.13333333333333333,
            "value": {
              "__uuid__": "aa857d3f-8c08-4257-9f3b-f47c9b49f0fb"
            }
          },
          {
            "frame": 0.15,
            "value": {
              "__uuid__": "4aa18090-dfdf-4a3f-a018-e303e8be7901"
            }
          },
          {
            "frame": 0.16666666666666666,
            "value": {
              "__uuid__": "e94cbbc9-8edd-49ff-9a79-c7be7b12bf2c"
            }
          },
          {
            "frame": 0.18333333333333332,
            "value": {
              "__uuid__": "6753615a-0e20-477c-89f6-d3e62a6fb12a"
            }
          },
          {
            "frame": 0.2,
            "value": {
              "__uuid__": "fa509dbd-f221-4e78-b1e2-5b749ab310d0"
            }
          },
          {
            "frame": 0.21666666666666667,
            "value": {
              "__uuid__": "411f8a94-bef5-4111-b047-9c0fe8845b6d"
            }
          },
          {
            "frame": 0.23333333333333334,
            "value": {
              "__uuid__": "e88360ef-de0c-4a1e-bd5c-89ff39b492a6"
            }
          },
          {
            "frame": 0.25,
            "value": {
              "__uuid__": "876f9043-5000-45ac-9f6a-9f787789bc3c"
            }
          },
          {
            "frame": 0.26666666666666666,
            "value": {
              "__uuid__": "4efe222a-9395-4f09-808a-e15e13003126"
            }
          },
          {
            "frame": 0.2833333333333333,
            "value": {
              "__uuid__": "c4755ac0-817c-4477-aab5-7eb0249c5237"
            }
          },
          {
            "frame": 0.3,
            "value": {
              "__uuid__": "eb089d7d-15b2-437e-bd43-ccb57f89196e"
            }
          },
          {
            "frame": 0.31666666666666665,
            "value": {
              "__uuid__": "7d6355b4-3b8b-4595-900e-1a4f21e77cfc"
            }
          },
          {
            "frame": 0.3333333333333333,
            "value": {
              "__uuid__": "cbddea97-e8eb-437d-a2d6-0852fd5486d0"
            }
          },
          {
            "frame": 0.35,
            "value": {
              "__uuid__": "9b452b76-67cd-4338-8194-3fa453f316e1"
            }
          },
          {
            "frame": 0.36666666666666664,
            "value": {
              "__uuid__": "31f78673-0a79-4324-9984-31a9e5f3de90"
            }
          },
          {
            "frame": 0.38333333333333336,
            "value": {
              "__uuid__": "928e876d-9657-4f6a-8a50-415a99822b72"
            }
          },
          {
            "frame": 0.4,
            "value": {
              "__uuid__": "57aed609-bcb5-4cb5-8358-2f46fa310480"
            }
          },
          {
            "frame": 0.4166666666666667,
            "value": {
              "__uuid__": "133aeca4-7167-460e-83f4-065be7d9f822"
            }
          },
          {
            "frame": 0.43333333333333335,
            "value": {
              "__uuid__": "e76b47ae-c868-4126-98c9-d0c787afa7c9"
            }
          },
          {
            "frame": 0.45,
            "value": {
              "__uuid__": "9dd9974c-ba99-4154-a264-3aa042495601"
            }
          },
          {
            "frame": 0.4666666666666667,
            "value": {
              "__uuid__": "0a3600a3-ebc3-4edd-a849-0ba1be2992fa"
            }
          },
          {
            "frame": 0.48333333333333334,
            "value": {
              "__uuid__": "e2687a8a-27e8-487d-b0bf-04e43a8c3c45"
            }
          }
        ]
      }
    }
  },
  "events": []
}